{
    "extends": ["tslint:latest"],
    "linterOptions": {
      "exclude": [
          "./typescript/index.ts"
      ]
    },
    "rules": {
      // override tslint-react rules here
      "jsx-wrap-multiline": false,
      "interface-name": [true, "never-prefix"],
      "interface-over-type-literal": true,
      "object-literal-shorthand": true,
      "newline-before-return": true,
      "new-parens": true,
      "file-name-casing": [true, "pascal-case"],
      "arrow-parens": true,
      "arrow-return-shorthand": true,
      "prefer-readonly": true,
      "trailing-comma": [true, {"multiline": "never", "singleline": "never"}],
      "prefer-const": true,
      "no-require-imports": true,
      "no-mergeable-namespace": true,
      "max-line-length": [true, 72],
      "cyclomatic-complexity": true,
      "deprecation": true,
      "use-isnan": true,
      "typeof-compare": true,
      "radix": true,
      "prefer-object-spread": true,
      "prefer-conditional-expression": [true, "check-else-if"],
      "no-var-keyword": true,
      "no-use-before-declare": true,
      "no-unsafe-any": true,
      "no-unnecessary-class": [true, "allow-empty-class", "allow-constructor-only"],
      "no-return-await": true,
      "no-string-literal": true,
      "no-null-keyword": true,
      "no-object-literal-type-assertion": true,
      "no-misused-new": true,
      "no-invalid-template-strings": true,
      "no-invalid-this": [true, "check-function-in-method"],
      "no-dynamic-delete": true,
      "no-construct": true,
      "await-promise": true,
      "unified-signatures": true,
      "typedef": true,
      "promise-function-async": true,
      "only-arrow-functions": true,
      "no-any": true,
      "ban-comma-operator": true,
      "no-conditional-assignment": true,
      "no-floating-promises": true,
      "no-sparse-arrays": true,
      "no-eval": true,
      "variable-name": [true, "ban-keywords", "check-format", "allow-leading-underscore", "allow-pascal-case"],
      "jsx-no-lambda": false,
      "no-default-export": true
    }
  }